Progress (Outdated)/CPU/MIPS CPU/mini_CPU_Waveforms.vcd
$date
	Fri Dec  3 03:47:29 2021
$end
$version
	Icarus Verilog
$end
$timescale
	1s
$end
$scope module mini_cpu_tb $end
$var wire 32 ! writedata [31:0] $end
$var wire 1 " write $end
$var wire 1 # read $end
$var wire 32 $ address [31:0] $end
$var wire 1 % active $end
$var reg 1 & clk $end
$var reg 32 ' readdata [31:0] $end
$var reg 1 ( reset $end
$var reg 1 ) waitrequest $end
$scope module dut $end
$var wire 32 * address [31:0] $end
$var wire 1 & clk $end
$var wire 32 + readdata [31:0] $end
$var wire 1 ( reset $end
$var wire 1 ) waitrequest $end
$var wire 32 , writedata [31:0] $end
$var wire 1 " write $end
$var wire 1 - valid_write $end
$var wire 1 . valid_read $end
$var wire 32 / reg_data_in [31:0] $end
$var wire 1 # read $end
$var wire 32 0 instr [31:0] $end
$var wire 32 1 inst_addr [31:0] $end
$var wire 1 2 fetch $end
$var wire 1 3 end_of_inst_reg $end
$var wire 32 4 data_reg_b [31:0] $end
$var wire 32 5 data_reg_a [31:0] $end
$var wire 32 6 alu_data [31:0] $end
$var wire 32 7 addr [31:0] $end
$var wire 1 8 RegWrite $end
$var wire 1 9 RegDest $end
$var wire 1 : PCSrc $end
$var wire 1 ; MemtoReg $end
$var wire 1 < JRcontrol $end
$var wire 1 = ALUSrc $end
$var reg 1 % active $end
$var reg 1 > end_of_inst_store $end
$scope module alu_dut $end
$var wire 1 ( reset $end
$var wire 6 ? opcode [5:0] $end
$var wire 32 @ instruction [31:0] $end
$var wire 32 A immediateZE [31:0] $end
$var wire 32 B immediateSE [31:0] $end
$var wire 6 C func [5:0] $end
$var wire 32 D ReadData2 [31:0] $end
$var wire 32 E ReadData1 [31:0] $end
$var reg 32 F ALUResult [31:0] $end
$upscope $end
$scope module control_dut $end
$var wire 1 & clk $end
$var wire 1 > end_of_inst_store $end
$var wire 1 ( reset $end
$var wire 32 G inst [31:0] $end
$var wire 1 3 end_of_inst_reg $end
$var reg 1 = ALUSrc $end
$var reg 1 < JRcontrol $end
$var reg 1 # MemRead $end
$var reg 1 " MemWrite $end
$var reg 1 ; MemtoReg $end
$var reg 1 : PCSrc $end
$var reg 1 9 RegDest $end
$var reg 1 8 RegWrite $end
$var reg 1 2 fetch $end
$var reg 4 H jmp [3:0] $end
$var reg 3 I l_s [2:0] $end
$var reg 6 J op [5:0] $end
$upscope $end
$scope module data_dut $end
$var wire 32 K alu_in [31:0] $end
$var wire 1 ) delay $end
$var wire 32 L mem_in [31:0] $end
$var wire 1 ; mem_sel $end
$var wire 32 M instr [31:0] $end
$var reg 32 N data_to_reg [31:0] $end
$var reg 6 O load_op [5:0] $end
$var reg 32 P mem_type [31:0] $end
$var reg 1 - valid $end
$upscope $end
$scope module instreg_dut $end
$var wire 1 ) delay $end
$var wire 1 2 fetch $end
$var wire 32 Q mem_in [31:0] $end
$var wire 1 ( reset $end
$var reg 32 R instruction [31:0] $end
$var reg 1 . valid $end
$upscope $end
$scope module pc_dut $end
$var wire 1 < JRcontrol $end
$var wire 1 & clk $end
$var wire 1 ( reset $end
$var wire 32 S jumpaddr [31:0] $end
$var reg 32 T addrtojumpto [31:0] $end
$var reg 1 U noop $end
$var reg 32 V pcin [31:0] $end
$var reg 32 W pcnext [31:0] $end
$var reg 32 X pcout [31:0] $end
$upscope $end
$scope module reg_dut $end
$var wire 32 Y Instruction [31:0] $end
$var wire 1 8 W_en $end
$var wire 32 Z WriteData [31:0] $end
$var wire 1 % active $end
$var wire 1 & clk $end
$var wire 1 9 reg_dst $end
$var wire 1 ( reset $end
$var wire 1 . valid_read $end
$var wire 1 - valid_write $end
$var wire 5 [ write_addr [4:0] $end
$var wire 5 \ read_addr_2 [4:0] $end
$var wire 5 ] read_addr_1 [4:0] $end
$var reg 32 ^ ReadData1 [31:0] $end
$var reg 32 _ ReadData2 [31:0] $end
$var reg 1 3 end_instr $end
$scope begin $ivl_for_loop1 $end
$var integer 32 ` idx [31:0] $end
$upscope $end
$upscope $end
$upscope $end
$scope begin $ivl_for_loop0 $end
$var integer 32 a idx [31:0] $end
$upscope $end
$upscope $end
$enddefinitions $end
#0
$dumpvars
b1000000 a
bx `
bx _
bx ^
b0 ]
b0 \
b0 [
bx Z
b0 Y
b100 X
b1000 W
b100 V
xU
bx T
bx S
b0 R
bx Q
bx P
bx O
bx N
b0 M
bx L
bx K
bx J
bx I
bx H
b0 G
bx F
bx E
bx D
b0 C
b0 B
b0 A
b0 @
b0 ?
x>
x=
x<
x;
x:
x9
x8
bx 7
bx 6
bx 5
bx 4
x3
x2
b100 1
b0 0
bx /
x.
1-
bx ,
bx +
bx *
x)
1(
bx '
1&
x%
bx $
x#
x"
bx !
$end
#1
0<
02
0;
0:
08
09
0=
0"
0#
0.
0(
#5
0&
#10
b1100 W
b1000 1
b1000 X
0U
b1000 V
1&
#15
0&
#20
b10000 W
b1100 1
b1100 X
b1100 V
1&
#25
0&
#30
b10100 W
b10000 1
b10000 X
b10000 V
1&
#35
0&
#40
b11000 W
b10100 1
b10100 X
b10100 V
1&
#45
0&
#50
b11100 W
b11000 1
b11000 X
b11000 V
1&
#55
0&
#60
b100000 W
b11100 1
b11100 X
b11100 V
1&
#65
0&
#70
b100100 W
b100000 1
b100000 X
b100000 V
1&
#75
0&
#80
b101000 W
b100100 1
b100100 X
b100100 V
1&
#85
0&
#90
b101100 W
b101000 1
b101000 X
b101000 V
1&
#95
0&
#100
b110000 W
b101100 1
b101100 X
b101100 V
1&
#105
0&
#110
b110100 W
b110000 1
b110000 X
b110000 V
1&
#115
0&
#120
b111000 W
b110100 1
b110100 X
b110100 V
1&
#125
0&
#130
b111100 W
b111000 1
b111000 X
b111000 V
1&
#135
0&
#140
b1000000 W
b111100 1
b111100 X
b111100 V
1&
#145
0&
#150
b1000100 W
b1000000 1
b1000000 X
b1000000 V
1&
#155
0&
#160
b1001000 W
b1000100 1
b1000100 X
b1000100 V
1&
#165
0&
#170
b1001100 W
b1001000 1
b1001000 X
b1001000 V
1&
#175
0&
#180
b1010000 W
b1001100 1
b1001100 X
b1001100 V
1&
#185
0&
#190
b1010100 W
b1010000 1
b1010000 X
b1010000 V
1&
#195
0&
#200
b1011000 W
b1010100 1
b1010100 X
b1010100 V
1&
#205
0&
#210
b1011100 W
b1011000 1
b1011000 X
b1011000 V
1&
#215
0&
#220
b1100000 W
b1011100 1
b1011100 X
b1011100 V
1&
#225
0&
#230
b1100100 W
b1100000 1
b1100000 X
b1100000 V
1&
#235
0&
#240
b1101000 W
b1100100 1
b1100100 X
b1100100 V
1&
#245
0&
#250
b1101100 W
b1101000 1
b1101000 X
b1101000 V
1&
#255
0&
#260
b1110000 W
b1101100 1
b1101100 X
b1101100 V
1&
#265
0&
#270
b1110100 W
b1110000 1
b1110000 X
b1110000 V
1&
#275
0&
#280
b1111000 W
b1110100 1
b1110100 X
b1110100 V
1&
#285
0&
#290
b1111100 W
b1111000 1
b1111000 X
b1111000 V
1&
#295
0&
#300
b10000000 W
b1111100 1
b1111100 X
b1111100 V
1&
#305
0&
#310
b10000100 W
b10000000 1
b10000000 X
b10000000 V
1&
#315
0&
#320
b10001000 W
b10000100 1
b10000100 X
b10000100 V
1&
#325
0&
#330
b10001100 W
b10001000 1
b10001000 X
b10001000 V
1&
#335
0&
#340
b10010000 W
b10001100 1
b10001100 X
b10001100 V
1&
#345
0&
#350
b10010100 W
b10010000 1
b10010000 X
b10010000 V
1&
#355
0&
#360
b10011000 W
b10010100 1
b10010100 X
b10010100 V
1&
#365
0&
#370
b10011100 W
b10011000 1
b10011000 X
b10011000 V
1&
#375
0&
#380
b10100000 W
b10011100 1
b10011100 X
b10011100 V
1&
#385
0&
#390
b10100100 W
b10100000 1
b10100000 X
b10100000 V
1&
#395
0&
#400
b10101000 W
b10100100 1
b10100100 X
b10100100 V
1&
#405
0&
#410
b10101100 W
b10101000 1
b10101000 X
b10101000 V
1&
#415
0&
#420
b10110000 W
b10101100 1
b10101100 X
b10101100 V
1&
#425
0&
#430
b10110100 W
b10110000 1
b10110000 X
b10110000 V
1&
#435
0&
#440
b10111000 W
b10110100 1
b10110100 X
b10110100 V
1&
#445
0&
#450
b10111100 W
b10111000 1
b10111000 X
b10111000 V
1&
#455
0&
#460
b11000000 W
b10111100 1
b10111100 X
b10111100 V
1&
#465
0&
#470
b11000100 W
b11000000 1
b11000000 X
b11000000 V
1&
#475
0&
#480
b11001000 W
b11000100 1
b11000100 X
b11000100 V
1&
#485
0&
#490
b11001100 W
b11001000 1
b11001000 X
b11001000 V
1&
#495
0&
#500
b11010000 W
b11001100 1
b11001100 X
b11001100 V
1&
#505
0&
#510
b11010100 W
b11010000 1
b11010000 X
b11010000 V
1&
#515
0&
#520
b11011000 W
b11010100 1
b11010100 X
b11010100 V
1&
#525
0&
#530
b11011100 W
b11011000 1
b11011000 X
b11011000 V
1&
#535
0&
#540
b11100000 W
b11011100 1
b11011100 X
b11011100 V
1&
#545
0&
#550
b11100100 W
b11100000 1
b11100000 X
b11100000 V
1&
#555
0&
#560
b11101000 W
b11100100 1
b11100100 X
b11100100 V
1&
#565
0&
#570
b11101100 W
b11101000 1
b11101000 X
b11101000 V
1&
#575
0&
#580
b11110000 W
b11101100 1
b11101100 X
b11101100 V
1&
#585
0&
#590
b11110100 W
b11110000 1
b11110000 X
b11110000 V
1&
#595
0&
#600
b11111000 W
b11110100 1
b11110100 X
b11110100 V
1&
#605
0&
#610
b11111100 W
b11111000 1
b11111000 X
b11111000 V
1&
#615
0&
#620
b100000000 W
b11111100 1
b11111100 X
b11111100 V
1&
#625
0&
#630
b100000100 W
b100000000 1
b100000000 X
b100000000 V
1&
#635
0&
#640
b100001000 W
b100000100 1
b100000100 X
b100000100 V
1&
#645
0&
#650
b100001100 W
b100001000 1
b100001000 X
b100001000 V
1&
#655
0&
#660
b100010000 W
b100001100 1
b100001100 X
b100001100 V
1&
#665
0&
#670
b100010100 W
b100010000 1
b100010000 X
b100010000 V
1&
#675
0&
#680
b100011000 W
b100010100 1
b100010100 X
b100010100 V
1&
#685
0&
#690
b100011100 W
b100011000 1
b100011000 X
b100011000 V
1&
#695
0&
#700
b100100000 W
b100011100 1
b100011100 X
b100011100 V
1&
#705
0&
#710
b100100100 W
b100100000 1
b100100000 X
b100100000 V
1&
#715
0&
#720
b100101000 W
b100100100 1
b100100100 X
b100100100 V
1&
#725
0&
#730
b100101100 W
b100101000 1
b100101000 X
b100101000 V
1&
#735
0&
#740
b100110000 W
b100101100 1
b100101100 X
b100101100 V
1&
#745
0&
#750
b100110100 W
b100110000 1
b100110000 X
b100110000 V
1&
#755
0&
#760
b100111000 W
b100110100 1
b100110100 X
b100110100 V
1&
#765
0&
#770
b100111100 W
b100111000 1
b100111000 X
b100111000 V
1&
#775
0&
#780
b101000000 W
b100111100 1
b100111100 X
b100111100 V
1&
#785
0&
#790
b101000100 W
b101000000 1
b101000000 X
b101000000 V
1&
#795
0&
#800
b101001000 W
b101000100 1
b101000100 X
b101000100 V
1&
#805
0&
#810
b101001100 W
b101001000 1
b101001000 X
b101001000 V
1&
#815
0&
#820
b101010000 W
b101001100 1
b101001100 X
b101001100 V
1&
#825
0&
#830
b101010100 W
b101010000 1
b101010000 X
b101010000 V
1&
#835
0&
#840
b101011000 W
b101010100 1
b101010100 X
b101010100 V
1&
#845
0&
#850
b101011100 W
b101011000 1
b101011000 X
b101011000 V
1&
#855
0&
#860
b101100000 W
b101011100 1
b101011100 X
b101011100 V
1&
#865
0&
#870
b101100100 W
b101100000 1
b101100000 X
b101100000 V
1&
#875
0&
#880
b101101000 W
b101100100 1
b101100100 X
b101100100 V
1&
#885
0&
#890
b101101100 W
b101101000 1
b101101000 X
b101101000 V
1&
#895
0&
#900
b101110000 W
b101101100 1
b101101100 X
b101101100 V
1&
#905
0&
#910
b101110100 W
b101110000 1
b101110000 X
b101110000 V
1&
#915
0&
#920
b101111000 W
b101110100 1
b101110100 X
b101110100 V
1&
#925
0&
#930
b101111100 W
b101111000 1
b101111000 X
b101111000 V
1&
#935
0&
#940
b110000000 W
b101111100 1
b101111100 X
b101111100 V
1&
#945
0&
#950
b110000100 W
b110000000 1
b110000000 X
b110000000 V
1&
#955
0&
#960
b110001000 W
b110000100 1
b110000100 X
b110000100 V
1&
#965
0&
#970
b110001100 W
b110001000 1
b110001000 X
b110001000 V
1&
#975
0&
#980
b110010000 W
b110001100 1
b110001100 X
b110001100 V
1&
#985
0&
#990
b110010100 W
b110010000 1
b110010000 X
b110010000 V
1&
#995
0&
#1000
b110011000 W
b110010100 1
b110010100 X
b110010100 V
1&
#1005
0&
#1010
b110011100 W
b110011000 1
b110011000 X
b110011000 V
1&
#1015
0&
#1020
b110100000 W
b110011100 1
b110011100 X
b110011100 V
1&
#1025
0&
#1030
b110100100 W
b110100000 1
b110100000 X
b110100000 V
1&
#1035
0&
#1040
b110101000 W
b110100100 1
b110100100 X
b110100100 V
1&
#1045
0&
#1050
b110101100 W
b110101000 1
b110101000 X
b110101000 V
1&
#1055
0&
#1060
b110110000 W
b110101100 1
b110101100 X
b110101100 V
1&
#1065
0&
#1070
b110110100 W
b110110000 1
b110110000 X
b110110000 V
1&
#1075
0&
#1080
b110111000 W
b110110100 1
b110110100 X
b110110100 V
1&
#1085
0&
#1090
b110111100 W
b110111000 1
b110111000 X
b110111000 V
1&
#1095
0&
#1100
b111000000 W
b110111100 1
b110111100 X
b110111100 V
1&
#1105
0&
#1110
b111000100 W
b111000000 1
b111000000 X
b111000000 V
1&
#1115
0&
#1120
b111001000 W
b111000100 1
b111000100 X
b111000100 V
1&
#1125
0&
#1130
b111001100 W
b111001000 1
b111001000 X
b111001000 V
1&
#1135
0&
#1140
b111010000 W
b111001100 1
b111001100 X
b111001100 V
1&
#1145
0&
#1150
b111010100 W
b111010000 1
b111010000 X
b111010000 V
1&
#1155
0&
#1160
b111011000 W
b111010100 1
b111010100 X
b111010100 V
1&
#1165
0&
#1170
b111011100 W
b111011000 1
b111011000 X
b111011000 V
1&
#1175
0&
#1180
b111100000 W
b111011100 1
b111011100 X
b111011100 V
1&
#1185
0&
#1190
b111100100 W
b111100000 1
b111100000 X
b111100000 V
1&
#1195
0&
#1200
b111101000 W
b111100100 1
b111100100 X
b111100100 V
1&
#1205
0&
#1210
b111101100 W
b111101000 1
b111101000 X
b111101000 V
1&
#1215
0&
#1220
b111110000 W
b111101100 1
b111101100 X
b111101100 V
1&
#1225
0&
#1230
b111110100 W
b111110000 1
b111110000 X
b111110000 V
1&
#1235
0&
#1240
b111111000 W
b111110100 1
b111110100 X
b111110100 V
1&
#1245
0&
#1250
b111111100 W
b111111000 1
b111111000 X
b111111000 V
1&
#1255
0&
#1260
b1000000000 W
b111111100 1
b111111100 X
b111111100 V
1&
#1265
0&
#1270
b1000000100 W
b1000000000 1
b1000000000 X
b1000000000 V
1&
#1275
0&
#1280
b1000001000 W
b1000000100 1
b1000000100 X
b1000000100 V
1&
#1285
0&
#1290
b1000001100 W
b1000001000 1
b1000001000 X
b1000001000 V
1&
#1295
0&
#1300
b1000010000 W
b1000001100 1
b1000001100 X
b1000001100 V
1&
#1305
0&
#1310
b1000010100 W
b1000010000 1
b1000010000 X
b1000010000 V
1&
#1315
0&
#1320
b1000011000 W
b1000010100 1
b1000010100 X
b1000010100 V
1&
#1325
0&
#1330
b1000011100 W
b1000011000 1
b1000011000 X
b1000011000 V
1&
#1335
0&
#1340
b1000100000 W
b1000011100 1
b1000011100 X
b1000011100 V
1&
#1345
0&
#1350
b1000100100 W
b1000100000 1
b1000100000 X
b1000100000 V
1&
#1355
0&
#1360
b1000101000 W
b1000100100 1
b1000100100 X
b1000100100 V
1&
#1365
0&
#1370
b1000101100 W
b1000101000 1
b1000101000 X
b1000101000 V
1&
#1375
0&
#1380
b1000110000 W
b1000101100 1
b1000101100 X
b1000101100 V
1&
#1385
0&
#1390
b1000110100 W
b1000110000 1
b1000110000 X
b1000110000 V
1&
#1395
0&
#1400
b1000111000 W
b1000110100 1
b1000110100 X
b1000110100 V
1&
#1405
0&
#1410
b1000111100 W
b1000111000 1
b1000111000 X
b1000111000 V
1&
#1415
0&
#1420
b1001000000 W
b1000111100 1
b1000111100 X
b1000111100 V
1&
#1425
0&
#1430
b1001000100 W
b1001000000 1
b1001000000 X
b1001000000 V
1&
#1435
0&
#1440
b1001001000 W
b1001000100 1
b1001000100 X
b1001000100 V
1&
#1445
0&
#1450
b1001001100 W
b1001001000 1
b1001001000 X
b1001001000 V
1&
#1455
0&
#1460
b1001010000 W
b1001001100 1
b1001001100 X
b1001001100 V
1&
#1465
0&
#1470
b1001010100 W
b1001010000 1
b1001010000 X
b1001010000 V
1&
#1475
0&
#1480
b1001011000 W
b1001010100 1
b1001010100 X
b1001010100 V
1&
#1485
0&
#1490
b1001011100 W
b1001011000 1
b1001011000 X
b1001011000 V
1&
#1495
0&
#1500
b1001100000 W
b1001011100 1
b1001011100 X
b1001011100 V
1&
#1505
0&
#1510
b1001100100 W
b1001100000 1
b1001100000 X
b1001100000 V
1&
#1515
0&
#1520
b1001101000 W
b1001100100 1
b1001100100 X
b1001100100 V
1&
#1525
0&
#1530
b1001101100 W
b1001101000 1
b1001101000 X
b1001101000 V
1&
#1535
0&
#1540
b1001110000 W
b1001101100 1
b1001101100 X
b1001101100 V
1&
#1545
0&
#1550
b1001110100 W
b1001110000 1
b1001110000 X
b1001110000 V
1&
#1555
0&
#1560
b1001111000 W
b1001110100 1
b1001110100 X
b1001110100 V
1&
#1565
0&
#1570
b1001111100 W
b1001111000 1
b1001111000 X
b1001111000 V
1&
#1575
0&
#1580
b1010000000 W
b1001111100 1
b1001111100 X
b1001111100 V
1&
#1585
0&
#1590
b1010000100 W
b1010000000 1
b1010000000 X
b1010000000 V
1&
#1595
0&
#1600
b1010001000 W
b1010000100 1
b1010000100 X
b1010000100 V
1&
#1605
0&
#1610
b1010001100 W
b1010001000 1
b1010001000 X
b1010001000 V
1&
#1615
0&
#1620
b1010010000 W
b1010001100 1
b1010001100 X
b1010001100 V
1&
#1625
0&
#1630
b1010010100 W
b1010010000 1
b1010010000 X
b1010010000 V
1&
#1635
0&
#1640
b1010011000 W
b1010010100 1
b1010010100 X
b1010010100 V
1&
#1645
0&
#1650
b1010011100 W
b1010011000 1
b1010011000 X
b1010011000 V
1&
#1655
0&
#1660
b1010100000 W
b1010011100 1
b1010011100 X
b1010011100 V
1&
#1665
0&
#1670
b1010100100 W
b1010100000 1
b1010100000 X
b1010100000 V
1&
#1675
0&
#1680
b1010101000 W
b1010100100 1
b1010100100 X
b1010100100 V
1&
#1685
0&
#1690
b1010101100 W
b1010101000 1
b1010101000 X
b1010101000 V
1&
#1695
0&
#1700
b1010110000 W
b1010101100 1
b1010101100 X
b1010101100 V
1&
#1705
0&
#1710
b1010110100 W
b1010110000 1
b1010110000 X
b1010110000 V
1&
#1715
0&
#1720
b1010111000 W
b1010110100 1
b1010110100 X
b1010110100 V
1&
#1725
0&
#1730
b1010111100 W
b1010111000 1
b1010111000 X
b1010111000 V
1&
#1735
0&
#1740
b1011000000 W
b1010111100 1
b1010111100 X
b1010111100 V
1&
#1745
0&
#1750
b1011000100 W
b1011000000 1
b1011000000 X
b1011000000 V
1&
#1755
0&
#1760
b1011001000 W
b1011000100 1
b1011000100 X
b1011000100 V
1&
#1765
0&
#1770
b1011001100 W
b1011001000 1
b1011001000 X
b1011001000 V
1&
#1775
0&
#1780
b1011010000 W
b1011001100 1
b1011001100 X
b1011001100 V
1&
#1785
0&
#1790
b1011010100 W
b1011010000 1
b1011010000 X
b1011010000 V
1&
#1795
0&
#1800
b1011011000 W
b1011010100 1
b1011010100 X
b1011010100 V
1&
#1805
0&
#1810
b1011011100 W
b1011011000 1
b1011011000 X
b1011011000 V
1&
#1815
0&
#1820
b1011100000 W
b1011011100 1
b1011011100 X
b1011011100 V
1&
#1825
0&
#1830
b1011100100 W
b1011100000 1
b1011100000 X
b1011100000 V
1&
#1835
0&
#1840
b1011101000 W
b1011100100 1
b1011100100 X
b1011100100 V
1&
#1845
0&
#1850
b1011101100 W
b1011101000 1
b1011101000 X
b1011101000 V
1&
#1855
0&
#1860
b1011110000 W
b1011101100 1
b1011101100 X
b1011101100 V
1&
#1865
0&
#1870
b1011110100 W
b1011110000 1
b1011110000 X
b1011110000 V
1&
#1875
0&
#1880
b1011111000 W
b1011110100 1
b1011110100 X
b1011110100 V
1&
#1885
0&
#1890
b1011111100 W
b1011111000 1
b1011111000 X
b1011111000 V
1&
#1895
0&
#1900
b1100000000 W
b1011111100 1
b1011111100 X
b1011111100 V
1&
#1905
0&
#1910
b1100000100 W
b1100000000 1
b1100000000 X
b1100000000 V
1&
#1915
0&
#1920
b1100001000 W
b1100000100 1
b1100000100 X
b1100000100 V
1&
#1925
0&
#1930
b1100001100 W
b1100001000 1
b1100001000 X
b1100001000 V
1&
#1935
0&
#1940
b1100010000 W
b1100001100 1
b1100001100 X
b1100001100 V
1&
#1945
0&
#1950
b1100010100 W
b1100010000 1
b1100010000 X
b1100010000 V
1&
#1955
0&
#1960
b1100011000 W
b1100010100 1
b1100010100 X
b1100010100 V
1&
#1965
0&
#1970
b1100011100 W
b1100011000 1
b1100011000 X
b1100011000 V
1&
#1975
0&
#1980
b1100100000 W
b1100011100 1
b1100011100 X
b1100011100 V
1&
#1985
0&
#1990
b1100100100 W
b1100100000 1
b1100100000 X
b1100100000 V
1&
#1995
0&
#2000
b1100101000 W
b1100100100 1
b1100100100 X
b1100100100 V
1&
#2005
0&
#2010
b1100101100 W
b1100101000 1
b1100101000 X
b1100101000 V
1&
#2015
0&
#2020
b1100110000 W
b1100101100 1
b1100101100 X
b1100101100 V
1&
#2025
0&
#2030
b1100110100 W
b1100110000 1
b1100110000 X
b1100110000 V
1&
#2035
0&
#2040
b1100111000 W
b1100110100 1
b1100110100 X
b1100110100 V
1&
#2045
0&
#2050
b1100111100 W
b1100111000 1
b1100111000 X
b1100111000 V
1&
#2055
0&
#2060
b1101000000 W
b1100111100 1
b1100111100 X
b1100111100 V
1&
#2065
0&
#2070
b1101000100 W
b1101000000 1
b1101000000 X
b1101000000 V
1&
#2075
0&
#2080
b1101001000 W
b1101000100 1
b1101000100 X
b1101000100 V
1&
#2085
0&
#2090
b1101001100 W
b1101001000 1
b1101001000 X
b1101001000 V
1&
#2095
0&
#2100
b1101010000 W
b1101001100 1
b1101001100 X
b1101001100 V
1&
#2105
0&
#2110
b1101010100 W
b1101010000 1
b1101010000 X
b1101010000 V
1&
#2115
0&
#2120
b1101011000 W
b1101010100 1
b1101010100 X
b1101010100 V
1&
#2125
0&
#2130
b1101011100 W
b1101011000 1
b1101011000 X
b1101011000 V
1&
#2135
0&
#2140
b1101100000 W
b1101011100 1
b1101011100 X
b1101011100 V
1&
#2145
0&
#2150
b1101100100 W
b1101100000 1
b1101100000 X
b1101100000 V
1&
#2155
0&
#2160
b1101101000 W
b1101100100 1
b1101100100 X
b1101100100 V
1&
#2165
0&
#2170
b1101101100 W
b1101101000 1
b1101101000 X
b1101101000 V
1&
#2175
0&
#2180
b1101110000 W
b1101101100 1
b1101101100 X
b1101101100 V
1&
#2185
0&
#2190
b1101110100 W
b1101110000 1
b1101110000 X
b1101110000 V
1&
#2195
0&
#2200
b1101111000 W
b1101110100 1
b1101110100 X
b1101110100 V
1&
#2205
0&
#2210
b1101111100 W
b1101111000 1
b1101111000 X
b1101111000 V
1&
#2215
0&
#2220
b1110000000 W
b1101111100 1
b1101111100 X
b1101111100 V
1&
#2225
0&
#2230
b1110000100 W
b1110000000 1
b1110000000 X
b1110000000 V
1&
#2235
0&
#2240
b1110001000 W
b1110000100 1
b1110000100 X
b1110000100 V
1&
#2245
0&
#2250
b1110001100 W
b1110001000 1
b1110001000 X
b1110001000 V
1&
#2255
0&
#2260
b1110010000 W
b1110001100 1
b1110001100 X
b1110001100 V
1&
#2265
0&
#2270
b1110010100 W
b1110010000 1
b1110010000 X
b1110010000 V
1&
#2275
0&
#2280
b1110011000 W
b1110010100 1
b1110010100 X
b1110010100 V
1&
#2285
0&
#2290
b1110011100 W
b1110011000 1
b1110011000 X
b1110011000 V
1&
#2295
0&
#2300
b1110100000 W
b1110011100 1
b1110011100 X
b1110011100 V
1&
#2305
0&
#2310
b1110100100 W
b1110100000 1
b1110100000 X
b1110100000 V
1&
#2315
0&
#2320
b1110101000 W
b1110100100 1
b1110100100 X
b1110100100 V
1&
#2325
0&
#2330
b1110101100 W
b1110101000 1
b1110101000 X
b1110101000 V
1&
#2335
0&
#2340
b1110110000 W
b1110101100 1
b1110101100 X
b1110101100 V
1&
#2345
0&
#2350
b1110110100 W
b1110110000 1
b1110110000 X
b1110110000 V
1&
#2355
0&
#2360
b1110111000 W
b1110110100 1
b1110110100 X
b1110110100 V
1&
#2365
0&
#2370
b1110111100 W
b1110111000 1
b1110111000 X
b1110111000 V
1&
#2375
0&
#2380
b1111000000 W
b1110111100 1
b1110111100 X
b1110111100 V
1&
#2385
0&
#2390
b1111000100 W
b1111000000 1
b1111000000 X
b1111000000 V
1&
#2395
0&
#2400
b1111001000 W
b1111000100 1
b1111000100 X
b1111000100 V
1&
#2405
0&
#2410
b1111001100 W
b1111001000 1
b1111001000 X
b1111001000 V
1&
#2415
0&
#2420
b1111010000 W
b1111001100 1
b1111001100 X
b1111001100 V
1&
#2425
0&
#2430
b1111010100 W
b1111010000 1
b1111010000 X
b1111010000 V
1&
#2435
0&
#2440
b1111011000 W
b1111010100 1
b1111010100 X
b1111010100 V
1&
#2445
0&
#2450
b1111011100 W
b1111011000 1
b1111011000 X
b1111011000 V
1&
#2455
0&
#2460
b1111100000 W
b1111011100 1
b1111011100 X
b1111011100 V
1&
#2465
0&
#2470
b1111100100 W
b1111100000 1
b1111100000 X
b1111100000 V
1&
#2475
0&
#2480
b1111101000 W
b1111100100 1
b1111100100 X
b1111100100 V
1&
#2485
0&
#2490
b1111101100 W
b1111101000 1
b1111101000 X
b1111101000 V
1&
#2495
0&
#2500
b1111110000 W
b1111101100 1
b1111101100 X
b1111101100 V
1&
#2505
0&
#2510
b1111110100 W
b1111110000 1
b1111110000 X
b1111110000 V
1&
#2515
0&
#2520
b1111111000 W
b1111110100 1
b1111110100 X
b1111110100 V
1&
#2525
0&
#2530
b1111111100 W
b1111111000 1
b1111111000 X
b1111111000 V
1&
#2535
0&
#2540
b10000000000 W
b1111111100 1
b1111111100 X
b1111111100 V
1&
#2545
0&
#2550
b10000000100 W
b10000000000 1
b10000000000 X
b10000000000 V
1&
#2555
0&
#2560
b10000001000 W
b10000000100 1
b10000000100 X
b10000000100 V
1&
#2565
0&
#2570
b10000001100 W
b10000001000 1
b10000001000 X
b10000001000 V
1&
#2575
0&
#2580
b10000010000 W
b10000001100 1
b10000001100 X
b10000001100 V
1&
#2585
0&
#2590
b10000010100 W
b10000010000 1
b10000010000 X
b10000010000 V
1&
#2595
0&
#2600
b10000011000 W
b10000010100 1
b10000010100 X
b10000010100 V
1&
#2605
0&
#2610
b10000011100 W
b10000011000 1
b10000011000 X
b10000011000 V
1&
#2615
0&
#2620
b10000100000 W
b10000011100 1
b10000011100 X
b10000011100 V
1&
#2625
0&
#2630
b10000100100 W
b10000100000 1
b10000100000 X
b10000100000 V
1&
#2635
0&
#2640
b10000101000 W
b10000100100 1
b10000100100 X
b10000100100 V
1&
#2645
0&
#2650
b10000101100 W
b10000101000 1
b10000101000 X
b10000101000 V
1&
#2655
0&
#2660
b10000110000 W
b10000101100 1
b10000101100 X
b10000101100 V
1&
#2665
0&
#2670
b10000110100 W
b10000110000 1
b10000110000 X
b10000110000 V
1&
#2675
0&
#2680
b10000111000 W
b10000110100 1
b10000110100 X
b10000110100 V
1&
#2685
0&
#2690
b10000111100 W
b10000111000 1
b10000111000 X
b10000111000 V
1&
#2695
0&
#2700
b10001000000 W
b10000111100 1
b10000111100 X
b10000111100 V
1&
#2705
0&
#2710
b10001000100 W
b10001000000 1
b10001000000 X
b10001000000 V
1&
#2715
0&
#2720
b10001001000 W
b10001000100 1
b10001000100 X
b10001000100 V
1&
#2725
0&
#2730
b10001001100 W
b10001001000 1
b10001001000 X
b10001001000 V
1&
#2735
0&
#2740
b10001010000 W
b10001001100 1
b10001001100 X
b10001001100 V
1&
#2745
0&
#2750
b10001010100 W
b10001010000 1
b10001010000 X
b10001010000 V
1&
#2755
0&
#2760
b10001011000 W
b10001010100 1
b10001010100 X
b10001010100 V
1&
#2765
0&
#2770
b10001011100 W
b10001011000 1
b10001011000 X
b10001011000 V
1&
#2775
0&
#2780
b10001100000 W
b10001011100 1
b10001011100 X
b10001011100 V
1&
#2785
0&
#2790
b10001100100 W
b10001100000 1
b10001100000 X
b10001100000 V
1&
#2795
0&
#2800
b10001101000 W
b10001100100 1
b10001100100 X
b10001100100 V
1&
#2805
0&
#2810
b10001101100 W
b10001101000 1
b10001101000 X
b10001101000 V
1&
#2815
0&
#2820
b10001110000 W
b10001101100 1
b10001101100 X
b10001101100 V
1&
#2825
0&
#2830
b10001110100 W
b10001110000 1
b10001110000 X
b10001110000 V
1&
#2835
0&
#2840
b10001111000 W
b10001110100 1
b10001110100 X
b10001110100 V
1&
#2845
0&
#2850
b10001111100 W
b10001111000 1
b10001111000 X
b10001111000 V
1&
#2855
0&
#2860
b10010000000 W
b10001111100 1
b10001111100 X
b10001111100 V
1&
#2865
0&
#2870
b10010000100 W
b10010000000 1
b10010000000 X
b10010000000 V
1&
#2875
0&
#2880
b10010001000 W
b10010000100 1
b10010000100 X
b10010000100 V
1&
#2885
0&
#2890
b10010001100 W
b10010001000 1
b10010001000 X
b10010001000 V
1&
#2895
0&
